----- Personality CAFEBOSE generated by A.I. V3.0 at 06:27 pm on 31-May-00
 
       1 CLEAR SCREEN
       2 CONTROL LINE 1 OFF
       3 CONTROL LINE 2 ON
       4 CONTROL LINE 3 ON
       5 CONTROL LINE 4 ON
       6 CONTROL LINE 5 ON
       7 CONTROL LINE 6 ON
       8         LED 2 OFF
       9         LED 3 OFF
      10         MOVE "N" to MODORELOJ
      11         MOVE "XXXX" to LASTAUTO
      12         MOVE 0 to CERO
      13         MOVE 1 to UNO
      14         MOVE CERO to VALIDAR
      15         MOVE "" to ULTIMO
      16         MOVE CERO to ACEPTADAS
      17         MOVE CERO to RECHAZADAS
      18         MOVE UNO to TIPOFOOD
      19    CHARACTER of 10 into MANUAL
      20    CHARACTER of 13 into CRLF
      21       APPEND MANUAL to CRLF
      22         MOVE "NOMBRE" to EMPRESA
      23   SEQ LOOKUP in "L-ALARMA", 1 using EMPRESA into OUT
      24         MOVE "CAFETERIA" to EMPRESA
      25         IF OUT starts with "0000" THEN GOTO Restart(29)
      26       MIDDLE 1140 characters of OUT into OUT
      27         MOVE OUT to EMPRESA
      28         GOTO Restart(29)
      29 Restart:           
      30         MOVE CERO to NUMCOMIDAS
      31         MOVE "" to ULTIMO
      32         MOVE CERO to SUPERVISA
      33         IF MODORELOJ equals "N" THEN GOTO ModoNormal(35)
      34         IF MODORELOJ equals "P" THEN GOTO ModoProhibe(37)
      35 ModoNormal:           
      36         GOTO UpdateTime(40)
      37 ModoProhibe:           
      38      DISPLAY 1 9 from "PROHIBIDO"
      39         GOTO UpdateTime(40)
      40 UpdateTime:           
      41      DISPLAY 12 5 from TIME
      42      DISPLAY 18 23 from EMPRESA
      43     TRANSFER to HORA 1 4 from TIME
      44         IF LASTAUTO equals HORA THEN GOTO NoHuboAlarma(71)
      45   SEQ LOOKUP in "L-ALARMA", 1 using HORA into OUT
      46         IF OUT starts with "0000" THEN GOTO NoHuboAlarma(71)
      47         MOVE HORA to LASTAUTO
      48       MIDDLE 920 characters of OUT into OUT
      49         IF OUT starts with "N" THEN GOTO AutoNormal(56)
      50         IF OUT starts with "P" THEN GOTO AutoProhibe(61)
      51         IF OUT is between 0 and 9 THEN GOTO TipoComida(65)
      52        SOUND 300, 1
      53      DISPLAY 41 13 from "ERROR: ALARMA"
      54        PAUSE 1
      55         GOTO Restart(29)
      56 AutoNormal:           
      57        SOUND 1000, .25
      58 CLEAR SCREEN
      59         MOVE "N" to MODORELOJ
      60         GOTO Restart(29)
      61 AutoProhibe:           
      62        SOUND 1000, .25
      63         MOVE "P" to MODORELOJ
      64         GOTO Restart(29)
      65 TipoComida:           
      66        SOUND 1000, .25
      67         MOVE OUT to TIPOFOOD
      68      DISPLAY w/CLR2  41 6 from "TIPO ="
      69      DISPLAY 48 1 from TIPOFOOD
      70         GOTO Restart(29)
      71 NoHuboAlarma:           
      72         READ BADGE COM to IN  on Timeout 1000 goto NoHuboBadge(77)
      73         ON Badge INPUT GOTO AskForBadge(81)
      74         ON Comm port INPUT GOTO AskForBadge(81)
      75        SOUND 2000, .15
      76         GOTO UpdateTime(40)
      77 NoHuboBadge:           
      78         MOVE CREDENCIAL to GAFETE
      79        GOSUB HayComidas(184)
      80         GOTO Restart(29)
      81 AskForBadge:           
      82         MOVE IN to CREDENCIAL
      83         IF CREDENCIAL starts with "CAFE" THEN GOTO Operador(123)
      84         IF CREDENCIAL equals "012345B" THEN GOTO Operador(123)
      85       LENGTH of CREDENCIAL into TAMANO
      86         IF TAMANO equals 7 THEN GOTO NormalSize(90)
      87         MOVE CERO to MANUAL
      88       APPEND CREDENCIAL to MANUAL
      89         MOVE MANUAL to CREDENCIAL
      90 NormalSize:           
      91       MIDDLE 22 characters of CREDENCIAL into INVITA
      92         IF INVITA equals "IV" THEN GOTO Invitador(100)
      93         IF CREDENCIAL equals ULTIMO THEN GOTO Repetido(97)
      94         MOVE ULTIMO to GAFETE
      95        GOSUB HayComidas(184)
      96         GOTO NoRepetido(105)
      97 Repetido:           
      98         ADD 1 to NUMCOMIDAS
      99         GOTO RevisaZ(109)
     100 Invitador:           
     101         MOVE UNO to IN
     102      DISPLAY w/CLR2  41 8 from "Comidas:"
     103     READ KBD to IN  50 2 Numeric AutoExit Default Zerofill  on Timeout 1000 goto OpCancelada(285)
     104         MOVE IN to NUMCOMIDAS
     105 NoRepetido:           
     106         MOVE CREDENCIAL to ULTIMO
     107         MOVE UNO to NUMCOMIDAS
     108         GOTO RevisaZ(109)
     109 RevisaZ:           
     110         IF CREDENCIAL ends with "Z" THEN GOTO Supervisor(120)
     111         IF CREDENCIAL ends with "Y" THEN GOTO Supervisor(120)
     112         IF CREDENCIAL starts with 999999 THEN GOTO AutoCredencial(115)
     113         IF MODORELOJ equals "P" THEN GOTO Rechazada(164)
     114         GOTO SendBadge(177)
     115 AutoCredencial:           
     116        RIGHT 1 characters of CREDENCIAL into OUT
     117         IF OUT is between 0 and 9 THEN GOTO TipoComida(65)
     118        RIGHT 1 characters of CREDENCIAL into MODORELOJ
     119         GOTO Restart(29)
     120 Supervisor:           
     121         MOVE UNO to SUPERVISA
     122         GOTO SendBadge(177)
     123 Operador:           
     124         MOVE ULTIMO to GAFETE
     125        GOSUB HayComidas(184)
     126      DISPLAY w/CLR1  1 16 from "F1=CANCEL,F2=MAN"
     127      DISPLAY w/CLR2  41 16 from "F3=CORTE, F4=VAL"
     128     READ KBD to IN  0 0 Default  on Timeout 1500 goto OpCancelada(285)
     129         ON F1 KEY GOTO Cancelar(139)
     130         ON F2 KEY GOTO PrepManual(135)
     131         ON F3 KEY GOTO Corte(143)
     132         ON F4 KEY GOTO Validacion(253)
     133        SOUND 300, 1
     134         GOTO Restart(29)
     135 PrepManual:           
     136         MOVE UNO to NUMCOMIDAS
     137         MOVE "* MANUAL *" to LETRERO
     138         GOTO RegManual(265)
     139 Cancelar:           
     140         MOVE -1 to NUMCOMIDAS
     141         MOVE "* CANCELAR *" to LETRERO
     142         GOTO RegManual(265)
     143 Corte:           
     144 CLEAR SCREEN
     145         MOVE "* CORTE *" to MANUAL
     146      DISPLAY 1 16 from MANUAL
     147       APPEND CRLF to MANUAL
     148         SEND MANUAL to AUX port
     149         MOVE RECHAZADAS to LETRERO
     150       APPEND " : RECHAZADAS" to LETRERO
     151        GOSUB DlgAlerta(248)
     152       APPEND CRLF to LETRERO
     153         SEND LETRERO to AUX port
     154        PAUSE 4
     155         MOVE ACEPTADAS to LETRERO
     156       APPEND " : ACEPTADAS" to LETRERO
     157        GOSUB DlgAlerta(248)
     158       APPEND CRLF to LETRERO
     159         SEND LETRERO to AUX port
     160        PAUSE 4
     161         MOVE CERO to ACEPTADAS
     162         MOVE CERO to RECHAZADAS
     163         GOTO Restart(29)
     164 Rechazada:           
     165         LED 3 ON
     166 CONTROL LINE 3 OFF
     167        SOUND 3000, .15
     168        PAUSE .2
     169        SOUND 3000, .15
     170        PAUSE .2
     171        SOUND 3000, .15
     172        PAUSE .2
     173        SOUND 3000, .3
     174         LED 3 OFF
     175 CONTROL LINE 3 ON
     176         GOTO UpdateTime(40)
     177 SendBadge:           
     178 CLEAR SCREEN
     179      DISPLAY 1 6 from CREDENCIAL
     180      DISPLAY 1 1 from "#"
     181      DISPLAY 42 2 from NUMCOMIDAS
     182      DISPLAY 45 9 from "Comida(s)"
     183         GOTO AceptaComida(228)
     184 HayComidas:           
     185         IF NUMCOMIDAS equals CERO THEN GOTO NoHayComidas(202)
     186         MOVE CERO to STATUSVALIDA
     187         MOVE "#" to NET
     188       APPEND GAFETE to NET
     189         MOVE "" to MANUAL
     190     TRANSFER to MANUAL 1 4 from DATE
     191       APPEND MANUAL to NET
     192     TRANSFER to ULTIMAHORA 1 4 from TIME
     193       APPEND ULTIMAHORA to NET
     194         MOVE CERO to MANUAL
     195       APPEND NUMCOMIDAS to MANUAL
     196        RIGHT 2 characters of MANUAL into NUMCOMIDAS
     197       APPEND NUMCOMIDAS to NET
     198       APPEND TIPOFOOD to NET
     199         MOVE TIPOFOOD to OUT
     200       MIDDLE 215 characters of NET into LASTRECORD
     201         SEND NET to host data QUEUE
     202 NoHayComidas:           
     203       RETURN from Gosub
     204 EsperaRespuesta:           
     205    READ HOST to IN  on Timeout 500 goto NoHuboRespuesta(213)
     206         IF IN starts with LASTRECORD THEN GOTO RespuestaOK(208)
     207         GOTO EsperaRespuesta(204)
     208 RespuestaOK:           
     209       MIDDLE 161 characters of IN into STATUSVALIDA
     210       MIDDLE 1740 characters of IN into RESPUESTA
     211         IF STATUSVALIDA equals 2 THEN GOTO AceptaComida(228)
     212         GOTO RechazaComida(217)
     213 NoHuboRespuesta:           
     214         MOVE UNO to STATUSVALIDA
     215         MOVE "NO RESPONDE" to RESPUESTA
     216         GOTO AceptaComida(228)
     217 RechazaComida:           
     218         MOVE 3 to STATUSVALIDA
     219         LED 3 ON
     220 CONTROL LINE 3 OFF
     221         MOVE RESPUESTA to LETRERO
     222        GOSUB DlgAlerta(248)
     223         ADD NUMCOMIDAS to RECHAZADAS
     224 CONTROL LINE 3 ON
     225        GOSUB IMPRIME(275)
     226         LED 3 OFF
     227         GOTO Restart(29)
     228 AceptaComida:           
     229         LED 2 ON
     230 CONTROL LINE 2 OFF
     231 CONTROL LINE 5 OFF
     232 CONTROL LINE 6 OFF
     233         ADD NUMCOMIDAS to ACEPTADAS
     234        GOSUB IMPRIME(275)
     235        PAUSE .25
     236         LED 2 OFF
     237 CONTROL LINE 2 ON
     238 CONTROL LINE 5 ON
     239 CONTROL LINE 6 ON
     240         GOTO NoHuboAlarma(71)
     241 PausaDecimas:           
     242         IF LEN_PAUSA is less than 1 THEN GOTO FinPausa(246)
     243        PAUSE .1
     244     SUBTRACT 1 from LEN_PAUSA
     245         GOTO PausaDecimas(241)
     246 FinPausa:           
     247       RETURN from Gosub
     248 DlgAlerta:           
     249      DISPLAY w/CLR2  41 40 from LETRERO
     250        SOUND 300, 1
     251        PAUSE 1.5
     252       RETURN from Gosub
     253 Validacion:           
     254      DISPLAY w/CLR1  1 7 from "VALIDAR"
     255         IF VALIDAR equals 1 THEN GOTO NoValidar(260)
     256         MOVE UNO to VALIDAR
     257         MOVE "* ACTIVADA *" to LETRERO
     258        GOSUB DlgAlerta(248)
     259         GOTO Restart(29)
     260 NoValidar:           
     261         MOVE CERO to VALIDAR
     262         MOVE "* CANCELADA *" to LETRERO
     263        GOSUB DlgAlerta(248)
     264         GOTO Restart(29)
     265 RegManual:           
     266 CLEAR SCREEN
     267      DISPLAY 1 2 from "#:"
     268      DISPLAY 41 40 from LETRERO
     269         MOVE CERO to MANUAL
     270     READ KBD BADGE to MANUAL  3 6 Numeric AutoExit Zerofill  on Timeout 1500 goto OpCancelada(285)
     271         MOVE "" to CREDENCIAL
     272     TRANSFER to CREDENCIAL 1 6 from MANUAL
     273       APPEND "+" to CREDENCIAL
     274         GOTO NoRepetido(105)
     275 Imprime:           
     276       APPEND HORA to MANUAL comma separated
     277       APPEND CREDENCIAL to MANUAL comma separated
     278       APPEND NUMCOMIDAS to MANUAL comma separated
     279       APPEND OUT to MANUAL comma separated
     280       APPEND " : " to MANUAL
     281       APPEND RESPUESTA to MANUAL
     282       APPEND CRLF to MANUAL
     283         SEND MANUAL to AUX port
     284       RETURN from Gosub
     285 OpCancelada:           
     286         MOVE "OP. CANCELADA" to LETRERO
     287        GOSUB DlgAlerta(248)
     288         GOTO Restart(29)
 
- Generation completed with no errors.
- Basic file CAFEBOSE.BAS contains 1058 lines.
- LXB compilation.

NO ERRORS DETECTED
 
- CAFEBOSE.LXE can be downloaded to LINX terminals
