----- Personality HOST generated by A.I. V3.0 at 07:56 am on 30-Jun-98
 
       1 CLEAR SCREEN
       2      DISPLAY w/CLR1  1 12 from "LEYENDO HOST"
       3 Inicio:           
       4    READ HOST to IN 
       5      DISPLAY 41 40 from IN
       6     READ KBD to TECLA  0 0 Default  on Timeout 500 goto Inicio(3)
       7         GOTO Inicio(3)
 
- Generation completed with no errors.
- Basic file HOST.BAS contains 483 lines.
- LXB compilation.

NO ERRORS DETECTED
 
- HOST.LXE can be downloaded to LINX terminals
