----- Personality SERIAL generated by A.I. V3.0 at 08:14 pm on 08-Jan-98
 
       1 CLEAR SCREEN
       2      DISPLAY 1 13 from "PRUEBA SERIAL"
       3    CHARACTER of 10 into BRINCA
       4    CHARACTER of 13 into 
       5       APPEND BRINCA to 
       6 Repite:           
       7      DISPLAY 41 8 from TIME
       8         MOVE "GRUPO TRESS" to LOCO
       9       APPEND to LOCO
      10         SEND LOCO to AUX port
      11         GOTO 8
 
- Generation completed with no errors.
- Basic file SERIAL.BAS contains 510 lines.
- LXB compilation.

NO ERRORS DETECTED
 
- SERIAL.LXE can be downloaded to LINX terminals
