----- Personality TDISPLAY generated by A.I. V3.0 at 04:37 pm on 30-Jun-06
 
       1      DISPLAY w/CLS  1 8 from "Probando"
       2    CHARACTER of 13 into CR
       3         MOVE 1234 to PTO_COM
       4         MOVE 1159 to PTO_AUX
       5         SEND PTO_COM to COM port
       6         SEND PTO_AUX to AUX port
       7   READ BADGE to IN 
       8         SEND IN to COM port
       9         SEND IN to AUX port
      10         GOTO 7
 
- Generation completed with no errors.
- Basic file TDISPLAY.BAS contains 529 lines.
- LXB compilation.

NO ERRORS DETECTED
 
- TDISPLAY.LXE can be downloaded to LINX terminals
