----- Personality CAFETEST generated by A.I. V3.0 at 09:25 am on 31-May-00
 
       1 CLEAR SCREEN
       2 CONTROL LINE 1 OFF
       3 CONTROL LINE 2 ON
       4 CONTROL LINE 3 ON
       5 CONTROL LINE 4 ON
       6 CONTROL LINE 5 ON
       7 CONTROL LINE 6 ON
       8         LED 2 OFF
       9         LED 3 OFF
      10         MOVE "N" to MODORELOJ
      11         MOVE "XXXX" to LASTAUTO
      12         MOVE 0 to CERO
      13         MOVE 1 to UNO
      14         MOVE UNO to VALIDAR
      15         MOVE "" to ULTIMO
      16         MOVE CERO to ACEPTADAS
      17         MOVE CERO to RECHAZADAS
      18         MOVE UNO to TIPOFOOD
      19    CHARACTER of 10 into MANUAL
      20    CHARACTER of 13 into CRLF
      21       APPEND MANUAL to CRLF
      22         MOVE "NOMBRE" to EMPRESA
      23   SEQ LOOKUP in "L-ALARMA", 1 using EMPRESA into OUT
      24         MOVE "CAFETERIA" to EMPRESA
      25         IF OUT starts with "0000" THEN GOTO Restart(29)
      26       MIDDLE 1140 characters of OUT into OUT
      27         MOVE OUT to EMPRESA
      28         GOTO Restart(29)
      29 Restart:           
      30         MOVE CERO to SUPERVISA
      31         IF MODORELOJ equals "N" THEN GOTO ModoNormal(33)
      32         IF MODORELOJ equals "P" THEN GOTO ModoProhibe(35)
      33 ModoNormal:           
      34         GOTO UpdateTime(38)
      35 ModoProhibe:           
      36      DISPLAY 1 9 from "PROHIBIDO"
      37         GOTO UpdateTime(38)
      38 UpdateTime:           
      39      DISPLAY 12 5 from TIME
      40      DISPLAY 18 23 from EMPRESA
      41     TRANSFER to HORA 1 4 from TIME
      42         IF LASTAUTO equals HORA THEN GOTO NoHuboAlarma(69)
      43   SEQ LOOKUP in "L-ALARMA", 1 using HORA into OUT
      44         IF OUT starts with "0000" THEN GOTO NoHuboAlarma(69)
      45         MOVE HORA to LASTAUTO
      46       MIDDLE 920 characters of OUT into OUT
      47         IF OUT starts with "N" THEN GOTO AutoNormal(54)
      48         IF OUT starts with "P" THEN GOTO AutoProhibe(59)
      49         IF OUT is between 0 and 9 THEN GOTO TipoComida(63)
      50        SOUND 300, 1
      51      DISPLAY 41 13 from "ERROR: ALARMA"
      52        PAUSE 1
      53         GOTO Restart(29)
      54 AutoNormal:           
      55        SOUND 1000, .25
      56 CLEAR SCREEN
      57         MOVE "N" to MODORELOJ
      58         GOTO Restart(29)
      59 AutoProhibe:           
      60        SOUND 1000, .25
      61         MOVE "P" to MODORELOJ
      62         GOTO Restart(29)
      63 TipoComida:           
      64        SOUND 1000, .25
      65         MOVE OUT to TIPOFOOD
      66      DISPLAY w/CLR2  41 6 from "TIPO ="
      67      DISPLAY 48 1 from TIPOFOOD
      68         GOTO Restart(29)
      69 NoHuboAlarma:           
      70         READ BADGE COM to IN  on Timeout 3000 goto UpdateTime(38)
      71         ON Badge INPUT GOTO AskForBadge(75)
      72         ON Comm port INPUT GOTO AskForBadge(75)
      73        SOUND 2000, .15
      74         GOTO UpdateTime(38)
      75 AskForBadge:           
      76         MOVE IN to CREDENCIAL
      77         MOVE "01" to NUMCOMIDAS
      78         IF CREDENCIAL starts with "CAFE" THEN GOTO Operador(124)
      79         IF CREDENCIAL equals "012345B" THEN GOTO Operador(124)
      80       LENGTH of CREDENCIAL into TAMANO
      81         IF TAMANO equals 7 THEN GOTO NormalSize(85)
      82         MOVE CERO to MANUAL
      83       APPEND CREDENCIAL to MANUAL
      84         MOVE MANUAL to CREDENCIAL
      85 NormalSize:           
      86       MIDDLE 22 characters of CREDENCIAL into INVITA
      87         IF INVITA equals "IV" THEN GOTO Invitador(102)
      88         IF CREDENCIAL is not equal to ULTIMO THEN GOTO NoRepetido(107)
      89         MOVE "" to MANUAL
      90     TRANSFER to MANUAL 1 4 from TIME
      91     SUBTRACT ULTIMAHORA from MANUAL
      92         IF MANUAL is greater than 1 THEN GOTO NoRepetido(107)
      93         IF MANUAL is less than 0 THEN GOTO NoRepetido(107)
      94         LED 3 ON
      95        SOUND 300, 1
      96      DISPLAY w/CLR2  41 1 from ""
      97      DISPLAY 41 16 from "MISMO?  ENTER=SI"
      98         LED 3 OFF
      99     READ KBD to IN  0 0  on Timeout 500 goto OpCancelada(274)
     100         ON Enter KEY GOTO NoRepetido(107)
     101         GOTO OpCancelada(274)
     102 Invitador:           
     103         MOVE UNO to IN
     104      DISPLAY w/CLR2  41 8 from "Comidas:"
     105     READ KBD to IN  50 2 Numeric AutoExit Default Zerofill  on Timeout 1000 goto OpCancelada(274)
     106         MOVE IN to NUMCOMIDAS
     107 NoRepetido:           
     108         MOVE CREDENCIAL to ULTIMO
     109         GOTO RevisaZ(110)
     110 RevisaZ:           
     111         IF CREDENCIAL ends with "Z" THEN GOTO Supervisor(121)
     112         IF CREDENCIAL ends with "Y" THEN GOTO Supervisor(121)
     113         IF CREDENCIAL starts with 999999 THEN GOTO AutoCredencial(116)
     114         IF MODORELOJ equals "P" THEN GOTO Rechazada(143)
     115         GOTO SendBadge(156)
     116 AutoCredencial:           
     117        RIGHT 1 characters of CREDENCIAL into OUT
     118         IF OUT is between 0 and 9 THEN GOTO TipoComida(63)
     119        RIGHT 1 characters of CREDENCIAL into MODORELOJ
     120         GOTO Restart(29)
     121 Supervisor:           
     122         MOVE UNO to SUPERVISA
     123         GOTO SendBadge(156)
     124 Operador:           
     125      DISPLAY w/CLR1  1 16 from "F1=CANCEL,F2=MAN"
     126      DISPLAY w/CLR2  41 16 from "F3=CORTE, F4=VAL"
     127     READ KBD to IN  0 0 Default  on Timeout 1500 goto OpCancelada(274)
     128         ON F1 KEY GOTO Cancelar(137)
     129         ON F2 KEY GOTO PrepManual(134)
     130         ON F3 KEY GOTO Corte(141)
     131         ON F4 KEY GOTO Validacion(242)
     132        SOUND 300, 1
     133         GOTO Restart(29)
     134 PrepManual:           
     135         MOVE "* MANUAL *" to LETRERO
     136         GOTO RegManual(254)
     137 Cancelar:           
     138         MOVE -1 to NUMCOMIDAS
     139         MOVE "* CANCELAR *" to LETRERO
     140         GOTO RegManual(254)
     141 Corte:           
     142         GOTO Restart(29)
     143 Rechazada:           
     144         LED 3 ON
     145 CONTROL LINE 3 OFF
     146        SOUND 3000, .15
     147        PAUSE .2
     148        SOUND 3000, .15
     149        PAUSE .2
     150        SOUND 3000, .15
     151        PAUSE .2
     152        SOUND 3000, .3
     153         LED 3 OFF
     154 CONTROL LINE 3 ON
     155         GOTO UpdateTime(38)
     156 SendBadge:           
     157 CLEAR SCREEN
     158      DISPLAY 1 6 from CREDENCIAL
     159      DISPLAY 1 1 from "#"
     160         MOVE TIPOFOOD to IN
     161         IF TIPOFOOD is greater than 0 THEN GOTO HayTipo(166)
     162         MOVE UNO to IN
     163      DISPLAY w/CLR2  41 5 from "Tipo:"
     164     READ KBD to IN  47 1 Numeric AutoExit Default  on Timeout 1000 goto OpCancelada(274)
     165         IF IN is not between 1 and 9 THEN GOTO SendBadge(156)
     166 HayTipo:           
     167         IF TIPOFOOD is not equal to 9 THEN GOTO HayComidas(171)
     168      DISPLAY 41 7 from "Precio:"
     169     READ KBD to NUMCOMIDAS  49 2 Numeric AutoExit Default Zerofill  on Timeout 1000 goto OpCancelada(274)
     170         IF NUMCOMIDAS is less than CERO THEN GOTO HayTipo(166)
     171 HayComidas:           
     172         MOVE CERO to STATUSVALIDA
     173         MOVE "#" to NET
     174       APPEND CREDENCIAL to NET
     175         MOVE "" to MANUAL
     176     TRANSFER to MANUAL 1 4 from DATE
     177       APPEND MANUAL to NET
     178     TRANSFER to ULTIMAHORA 1 4 from TIME
     179       APPEND ULTIMAHORA to NET
     180       APPEND NUMCOMIDAS to NET
     181       APPEND IN to NET
     182         MOVE IN to OUT
     183       MIDDLE 215 characters of NET into LASTRECORD
     184         SEND NET to host data QUEUE
     185         IF VALIDAR equals 1 THEN GOTO EsperaRespuesta(188)
     186         MOVE "ACEPTADA" to RESPUESTA
     187         GOTO AceptaComida(216)
     188 EsperaRespuesta:           
     189    READ HOST to IN  on Timeout 1000 goto NoHuboRespuesta(201)
     190         IF IN starts with LASTRECORD THEN GOTO RespuestaOK(196)
     191         MOVE "INCORRECTA" to LETRERO
     192        GOSUB DlgAlerta(237)
     193         MOVE IN to LETRERO
     194        GOSUB DlgAlerta(237)
     195         GOTO EsperaRespuesta(188)
     196 RespuestaOK:           
     197       MIDDLE 161 characters of IN into STATUSVALIDA
     198       MIDDLE 1740 characters of IN into RESPUESTA
     199         IF STATUSVALIDA equals 2 THEN GOTO AceptaComida(216)
     200         GOTO RechazaComida(205)
     201 NoHuboRespuesta:           
     202         MOVE UNO to STATUSVALIDA
     203         MOVE "NO RESPONDE" to RESPUESTA
     204         GOTO AceptaComida(216)
     205 RechazaComida:           
     206         MOVE 3 to STATUSVALIDA
     207         LED 3 ON
     208 CONTROL LINE 3 OFF
     209         MOVE RESPUESTA to LETRERO
     210        GOSUB DlgAlerta(237)
     211         ADD NUMCOMIDAS to RECHAZADAS
     212 CONTROL LINE 3 ON
     213        GOSUB IMPRIME(264)
     214         LED 3 OFF
     215         GOTO Restart(29)
     216 AceptaComida:           
     217         LED 2 ON
     218 CONTROL LINE 2 OFF
     219 CONTROL LINE 5 OFF
     220 CONTROL LINE 6 OFF
     221      DISPLAY w/CLR2  41 40 from RESPUESTA
     222         ADD NUMCOMIDAS to ACEPTADAS
     223        GOSUB IMPRIME(264)
     224        PAUSE .25
     225         LED 2 OFF
     226 CONTROL LINE 2 ON
     227 CONTROL LINE 5 ON
     228 CONTROL LINE 6 ON
     229         GOTO Restart(29)
     230 PausaDecimas:           
     231         IF LEN_PAUSA is less than 1 THEN GOTO FinPausa(235)
     232        PAUSE .1
     233     SUBTRACT 1 from LEN_PAUSA
     234         GOTO PausaDecimas(230)
     235 FinPausa:           
     236       RETURN from Gosub
     237 DlgAlerta:           
     238      DISPLAY w/CLR2  41 40 from LETRERO
     239        SOUND 300, 1
     240        PAUSE 1.5
     241       RETURN from Gosub
     242 Validacion:           
     243      DISPLAY w/CLR1  1 7 from "VALIDAR"
     244         IF VALIDAR equals 1 THEN GOTO NoValidar(249)
     245         MOVE UNO to VALIDAR
     246         MOVE "* ACTIVADA *" to LETRERO
     247        GOSUB DlgAlerta(237)
     248         GOTO Restart(29)
     249 NoValidar:           
     250         MOVE CERO to VALIDAR
     251         MOVE "* CANCELADA *" to LETRERO
     252        GOSUB DlgAlerta(237)
     253         GOTO Restart(29)
     254 RegManual:           
     255 CLEAR SCREEN
     256      DISPLAY 1 2 from "#:"
     257      DISPLAY 41 40 from LETRERO
     258         MOVE CERO to MANUAL
     259     READ KBD BADGE to MANUAL  3 6 Numeric AutoExit Zerofill  on Timeout 1500 goto OpCancelada(274)
     260         MOVE "" to CREDENCIAL
     261     TRANSFER to CREDENCIAL 1 6 from MANUAL
     262       APPEND "+" to CREDENCIAL
     263         GOTO SendBadge(156)
     264 Imprime:           
     265       APPEND HORA to MANUAL comma separated
     266       APPEND CREDENCIAL to MANUAL comma separated
     267       APPEND NUMCOMIDAS to MANUAL comma separated
     268       APPEND OUT to MANUAL comma separated
     269       APPEND " : " to MANUAL
     270       APPEND RESPUESTA to MANUAL
     271       APPEND CRLF to MANUAL
     272         SEND MANUAL to AUX port
     273       RETURN from Gosub
     274 OpCancelada:           
     275         MOVE "OP. CANCELADA" to LETRERO
     276        GOSUB DlgAlerta(237)
     277         GOTO Restart(29)
 
- Generation completed with no errors.
- Basic file CAFETEST.BAS contains 1081 lines.
- LXB compilation.

NO ERRORS DETECTED
 
- CAFETEST.LXE can be downloaded to LINX terminals
