----- Personality PROXBOSE generated by A.I. V3.0 at 04:49 pm on 29-Jun-06
 
       1 CONTROL LINE 1 OFF
       2 CONTROL LINE 2 ON
       3 CONTROL LINE 3 ON
       4 CONTROL LINE 4 ON
       5         LED 2 OFF
       6         LED 3 OFF
       7         MOVE "A" to MODORELOJ
       8         MOVE "XXXX" to LASTAUTO
       9         MOVE 0 to CERO
      10         MOVE 1 to UNO
      11         MOVE CERO to VALIDAR
      12         MOVE "" to ULTIMO
      13         MOVE "NOMBRE" to EMPRESA
      14   SEQ LOOKUP in "L-ALARMA", 1 using EMPRESA into OUT
      15         IF OUT starts with "0000" THEN GOTO NoHuboNombre(19)
      16       MIDDLE 1140 characters of OUT into OUT
      17         MOVE OUT to EMPRESA
      18         GOTO Restart(22)
      19 NoHuboNombre:           
      20         MOVE "          Grupo TRESS" to EMPRESA
      21         GOTO Restart(22)
      22 Restart:           
      23 CLEAR SCREEN
      24         MOVE CERO to SUPERVISA
      25         IF MODORELOJ equals "A" THEN GOTO ModoNormal(30)
      26         IF MODORELOJ equals "N" THEN GOTO ModoNormal(30)
      27         IF MODORELOJ equals "E" THEN GOTO ModoEntrada(33)
      28         IF MODORELOJ equals "S" THEN GOTO ModoSalida(37)
      29         IF MODORELOJ equals "P" THEN GOTO ModoProhibe(41)
      30 ModoNormal:           
      31      DISPLAY 1 40 from EMPRESA
      32         GOTO UpdateTime(44)
      33 ModoEntrada:           
      34      DISPLAY 6 29 from "RELOJ RAPIDO: *** ENTRADA ***"
      35         MOVE UNO to OP
      36         GOTO UpdateTime(44)
      37 ModoSalida:           
      38      DISPLAY 7 28 from "RELOJ RAPIDO: *** SALIDA ***"
      39         MOVE CERO to OP
      40         GOTO UpdateTime(44)
      41 ModoProhibe:           
      42      DISPLAY 5 32 from "*** NO ESTA PERMITIDO CHECAR ***"
      43         GOTO UpdateTime(44)
      44 UpdateTime:           
      45      DISPLAY w/CLR2  41 9 from TIME
      46      DISPLAY 72 9 from DATE
      47     TRANSFER to HORA 1 4 from TIME
      48         IF LASTAUTO equals HORA THEN GOTO NoHuboAlarma(109)
      49   SEQ LOOKUP in "L-ALARMA", 1 using HORA into OUT
      50         IF OUT starts with "0000" THEN GOTO NoHuboAlarma(109)
      51         MOVE HORA to LASTAUTO
      52       MIDDLE 920 characters of OUT into OUT
      53         IF OUT starts with "E" THEN GOTO AutoEntrada(69)
      54         IF OUT starts with "S" THEN GOTO AutoSalida(73)
      55         IF OUT starts with "N" THEN GOTO AutoNormal(77)
      56         IF OUT starts with "P" THEN GOTO AutoProhibe(81)
      57         IF OUT starts with "R" THEN GOTO AutoRelay(93)
      58         IF OUT starts with "A" THEN GOTO AutoAuto(65)
      59         IF OUT starts with "V" THEN GOTO AutoValida(85)
      60         IF OUT starts with "W" THEN GOTO AutoValida(85)
      61        SOUND 300, 1
      62      DISPLAY 48 23 from "ERROR EN ARCHIVO ALARMA"
      63        PAUSE 1
      64         GOTO Restart(22)
      65 AutoAuto:           
      66        SOUND 1000, .25
      67         MOVE "A" to MODORELOJ
      68         GOTO Restart(22)
      69 AutoEntrada:           
      70        SOUND 1000, .25
      71         MOVE "E" to MODORELOJ
      72         GOTO Restart(22)
      73 AutoSalida:           
      74        SOUND 1000, .25
      75         MOVE "S" to MODORELOJ
      76         GOTO Restart(22)
      77 AutoNormal:           
      78        SOUND 1000, .25
      79         MOVE "N" to MODORELOJ
      80         GOTO Restart(22)
      81 AutoProhibe:           
      82        SOUND 1000, .25
      83         MOVE "P" to MODORELOJ
      84         GOTO Restart(22)
      85 AutoValida:           
      86        SOUND 1000, .25
      87         IF OUT starts with "V" THEN GOTO PrendeValida(90)
      88         MOVE CERO to VALIDAR
      89         GOTO Restart(22)
      90 PrendeValida:           
      91         MOVE UNO to VALIDAR
      92         GOTO Restart(22)
      93 AutoRelay:           
      94       MIDDLE 32 characters of OUT into NUM_RINGS
      95       MIDDLE 52 characters of OUT into DURACION
      96       MIDDLE 72 characters of OUT into ESPACIO
      97 CicloRelay:           
      98         IF NUM_RINGS is less than 1 THEN GOTO Restart(22)
      99 CONTROL LINE 1 ON
     100 CONTROL LINE 4 OFF
     101         MOVE DURACION to LEN_PAUSA
     102        GOSUB PausaDecimas(244)
     103 CONTROL LINE 1 OFF
     104 CONTROL LINE 4 ON
     105         MOVE ESPACIO to LEN_PAUSA
     106        GOSUB PausaDecimas(244)
     107     SUBTRACT UNO from NUM_RINGS
     108         GOTO CicloRelay(97)
     109 NoHuboAlarma:           
     110         READ BADGE COM AUX to IN  on Timeout 300 goto UpdateTime(44)
     111         ON Badge INPUT GOTO AskForBadge(116)
     112         ON Comm port INPUT GOTO AskForBadge(116)
     113         ON Aux port INPUT GOTO AskForBadge(116)
     114        SOUND 2000, .15
     115         GOTO UpdateTime(44)
     116 AskForBadge:           
     117         MOVE IN to CREDENCIAL
     118       LENGTH of CREDENCIAL into TAMANO
     119         IF TAMANO equals 11 THEN GOTO NormalSize(134)
     120         MOVE "0000" to MANUAL
     121         GOTO Ajustada(130)
     122         LEFT UNO characters of CREDENCIAL into MANUAL
     123         IF TAMANO equals 7 THEN GOTO MideSiete(127)
     124       APPEND "00" to MANUAL
     125        RIGHT 8 characters of CREDENCIAL into CREDENCIAL
     126         GOTO Ajustada(130)
     127 MideSiete:           
     128       APPEND "0000" to MANUAL
     129        RIGHT 6 characters of CREDENCIAL into CREDENCIAL
     130 Ajustada:           
     131       APPEND CREDENCIAL to MANUAL
     132         MOVE MANUAL to CREDENCIAL
     133         GOTO NormalSize(134)
     134 NormalSize:           
     135         IF CREDENCIAL is not equal to ULTIMO THEN GOTO NoRepetido(150)
     136         MOVE "" to MANUAL
     137     TRANSFER to MANUAL 1 4 from TIME
     138     SUBTRACT ULTIMAHORA from MANUAL
     139         IF MANUAL is greater than UNO THEN GOTO NoRepetido(150)
     140         IF MANUAL is less than CERO THEN GOTO NoRepetido(150)
     141         IF CREDENCIAL ends with "Z" THEN GOTO NoRepetido(150)
     142         IF CREDENCIAL ends with "Y" THEN GOTO NoRepetido(150)
     143         LED 3 ON
     144 CONTROL LINE 3 OFF
     145         MOVE "SU CREDENCIAL YA FUE LEIDA !!!" to LETRERO
     146        GOSUB DlgAlerta(251)
     147         LED 3 OFF
     148 CONTROL LINE 3 ON
     149         GOTO Restart(22)
     150 NoRepetido:           
     151         MOVE CREDENCIAL to ULTIMO
     152         IF VALIDAR equals CERO THEN GOTO RevisaZ(161)
     153   BIN LOOKUP in "L-EMPLEADO", 1, 11, 13, using CREDENCIAL into OUT
     154         IF OUT starts with "0000" THEN GOTO NoAutorizado(156)
     155         GOTO RevisaZ(161)
     156 NoAutorizado:           
     157         IF MODORELOJ equals "P" THEN GOTO Rechazada(188)
     158      DISPLAY w/CLR2  41 25 from "Credencial No Autorizada:"
     159      DISPLAY 67 7 from CREDENCIAL
     160         GOTO Rechazada(188)
     161 RevisaZ:           
     162         IF CREDENCIAL ends with "Z" THEN GOTO Supervisor(170)
     163         IF CREDENCIAL ends with "Y" THEN GOTO Supervisor(170)
     164         IF CREDENCIAL starts with 9000099999 THEN GOTO AutoCredencial(167)
     165         IF MODORELOJ equals "P" THEN GOTO Rechazada(188)
     166         GOTO Aceptada(186)
     167 AutoCredencial:           
     168        RIGHT UNO characters of CREDENCIAL into MODORELOJ
     169         GOTO Restart(22)
     170 Supervisor:           
     171         MOVE UNO to SUPERVISA
     172      DISPLAY w/CLR1  3 36 from "IN, OUT, F1=AUTO ENTRA, F2=AUTO SALE"
     173      DISPLAY w/CLR2  41 40 from "F3=NORMAL, F4=PROHIBE, F5=VAL, F6=MANUAL"
     174     READ KBD to IN  0 0  on Timeout 1500 goto Cancelada(283)
     175         ON F1 KEY GOTO AutoEntrada(69)
     176         ON F2 KEY GOTO AutoSalida(73)
     177         ON F3 KEY GOTO AutoAuto(65)
     178         ON F4 KEY GOTO AutoProhibe(81)
     179         ON F5 KEY GOTO Validacion(256)
     180         ON F6 KEY GOTO RegManual(269)
     181         ON F7 KEY GOTO AutoNormal(77)
     182         ON In KEY GOTO SendEntrada(215)
     183         ON Out KEY GOTO SendSalida(218)
     184        SOUND 300, 1
     185         GOTO Restart(22)
     186 Aceptada:           
     187         GOTO SendBadge(201)
     188 Rechazada:           
     189         LED 3 ON
     190 CONTROL LINE 3 OFF
     191        SOUND 3000, .15
     192        PAUSE .2
     193        SOUND 3000, .15
     194        PAUSE .2
     195        SOUND 3000, .15
     196        PAUSE .2
     197        SOUND 3000, .3
     198         LED 3 OFF
     199 CONTROL LINE 3 ON
     200         GOTO UpdateTime(44)
     201 SendBadge:           
     202         IF SUPERVISA equals UNO THEN GOTO TeclearInOut(206)
     203         IF MODORELOJ equals "A" THEN GOTO SendEntrada(215)
     204         IF MODORELOJ equals "E" THEN GOTO SendData(221)
     205         IF MODORELOJ equals "S" THEN GOTO SendData(221)
     206 TeclearInOut:           
     207      DISPLAY w/CLR1  2 38 from "Oprima:    IN = ENTRADA   OUT = SALIDA"
     208     READ KBD to IN  0 0  on Timeout 1500 goto Cancelada(283)
     209         ON Exit KEY GOTO Restart(22)
     210         ON In KEY GOTO SendEntrada(215)
     211         ON Out KEY GOTO SendSalida(218)
     212         MOVE "TECLA NO ES VALIDA" to LETRERO
     213        GOSUB DlgAlerta(251)
     214         GOTO TeclearInOut(206)
     215 SendEntrada:           
     216         MOVE UNO to OP
     217         GOTO SendData(221)
     218 SendSalida:           
     219         MOVE CERO to OP
     220         GOTO SendData(221)
     221 SendData:           
     222         LED 2 ON
     223 CONTROL LINE 2 OFF
     224         LEFT 1 characters of CREDENCIAL into NET
     225       MIDDLE 65 characters of CREDENCIAL into MANUAL
     226       APPEND MANUAL to NET
     227      DISPLAY 50 12 from CREDENCIAL
     228      DISPLAY 62 8 from "Gracias!"
     229         MOVE "@@" to NET
     230       APPEND CREDENCIAL to NET
     231         MOVE "" to MANUAL
     232     TRANSFER to MANUAL 1 4 from DATE
     233       APPEND MANUAL to NET
     234     TRANSFER to ULTIMAHORA 1 4 from TIME
     235       APPEND ULTIMAHORA to NET
     236       APPEND OP to NET
     237         SEND NET to host data QUEUE
     238        PAUSE .25
     239         LED 2 OFF
     240 CONTROL LINE 2 ON
     241         IF MODORELOJ equals "N" THEN GOTO Restart(22)
     242         IF SUPERVISA equals UNO THEN GOTO Restart(22)
     243         GOTO UpdateTime(44)
     244 PausaDecimas:           
     245         IF LEN_PAUSA is less than UNO THEN GOTO FinPausa(249)
     246        PAUSE .1
     247     SUBTRACT UNO from LEN_PAUSA
     248         GOTO PausaDecimas(244)
     249 FinPausa:           
     250       RETURN from Gosub
     251 DlgAlerta:           
     252      DISPLAY w/CLR1  1 40 from LETRERO
     253        SOUND 300, 1
     254        PAUSE 1.5
     255       RETURN from Gosub
     256 Validacion:           
     257         IF VALIDAR equals UNO THEN GOTO NoValidar(262)
     258         MOVE UNO to VALIDAR
     259         MOVE "VALIDACION: *** ACTIVADA ***" to LETRERO
     260        GOSUB DlgAlerta(251)
     261         GOTO Restart(22)
     262 NoValidar:           
     263         MOVE CERO to VALIDAR
     264         MOVE "VALIDACION: *** CANCELADA ***" to LETRERO
     265        GOSUB DlgAlerta(251)
     266         GOTO Restart(22)
     267 Consulta:           
     268         GOTO Restart(22)
     269 RegManual:           
     270 CLEAR SCREEN
     271      DISPLAY 9 23 from "*** Registro Manual ***"
     272      DISPLAY 41 11 from "Empleado #:"
     273         MOVE CERO to MANUAL
     274     READ KBD BADGE to MANUAL  53 10 Numeric AutoExit Zerofill  on Timeout 1500 goto Cancelada(283)
     275         ON Badge INPUT GOTO ConCredencial(280)
     276         MOVE "" to CREDENCIAL
     277     TRANSFER to CREDENCIAL 1 10 from MANUAL
     278       APPEND "+" to CREDENCIAL
     279         GOTO SendBadge(201)
     280 ConCredencial:           
     281         MOVE MANUAL to CREDENCIAL
     282         GOTO SendBadge(201)
     283 Cancelada:           
     284         MOVE "        *** OPERACION CANCELADA ***" to LETRERO
     285        GOSUB DlgAlerta(251)
     286         GOTO Restart(22)
 
- Generation completed with no errors.
- Basic file PROXBOSE.BAS contains 1095 lines.
- LXB compilation.

NO ERRORS DETECTED
 
- PROXBOSE.LXE can be downloaded to LINX terminals
