----- Personality TRIPLE generated by A.I. V3.0 at 09:02 am on 11-Nov-04
 
       1 CONTROL LINE 1 OFF
       2 CONTROL LINE 2 ON
       3 CONTROL LINE 3 ON
       4 CONTROL LINE 4 ON
       5         LED 2 OFF
       6         LED 3 OFF
       7         MOVE "A" to MODORELOJ
       8         MOVE "XXXX" to LASTAUTO
       9         MOVE 0 to CERO
      10         MOVE 1 to UNO
      11         MOVE CERO to VALIDAR
      12         MOVE "" to ULTIMO
      13         MOVE "NOMBRE" to EMPRESA
      14   SEQ LOOKUP in "L-ALARMA", 1 using EMPRESA into OUT
      15         IF OUT starts with "0000" THEN GOTO NoHuboNombre(19)
      16       MIDDLE 1140 characters of OUT into OUT
      17         MOVE OUT to EMPRESA
      18         GOTO Restart(22)
      19 NoHuboNombre:           
      20         MOVE "          Grupo TRESS" to EMPRESA
      21         GOTO Restart(22)
      22 Restart:           
      23 CLEAR SCREEN
      24         MOVE CERO to SUPERVISA
      25         IF MODORELOJ equals "A" THEN GOTO ModoNormal(30)
      26         IF MODORELOJ equals "N" THEN GOTO ModoNormal(30)
      27         IF MODORELOJ equals "E" THEN GOTO ModoEntrada(33)
      28         IF MODORELOJ equals "S" THEN GOTO ModoSalida(37)
      29         IF MODORELOJ equals "P" THEN GOTO ModoProhibe(41)
      30 ModoNormal:           
      31      DISPLAY 1 40 from EMPRESA
      32         GOTO UpdateTime(44)
      33 ModoEntrada:           
      34      DISPLAY 6 29 from "RELOJ RAPIDO: *** ENTRADA ***"
      35         MOVE UNO to OP
      36         GOTO UpdateTime(44)
      37 ModoSalida:           
      38      DISPLAY 7 28 from "RELOJ RAPIDO: *** SALIDA ***"
      39         MOVE CERO to OP
      40         GOTO UpdateTime(44)
      41 ModoProhibe:           
      42      DISPLAY 5 32 from "*** NO ESTA PERMITIDO CHECAR ***"
      43         GOTO UpdateTime(44)
      44 UpdateTime:           
      45      DISPLAY w/CLR2  41 9 from TIME
      46      DISPLAY 72 9 from DATE
      47     TRANSFER to HORA 1 4 from TIME
      48         IF LASTAUTO equals HORA THEN GOTO NoHuboAlarma(109)
      49   SEQ LOOKUP in "L-ALARMA", 1 using HORA into OUT
      50         IF OUT starts with "0000" THEN GOTO NoHuboAlarma(109)
      51         MOVE HORA to LASTAUTO
      52       MIDDLE 920 characters of OUT into OUT
      53         IF OUT starts with "E" THEN GOTO AutoEntrada(69)
      54         IF OUT starts with "S" THEN GOTO AutoSalida(73)
      55         IF OUT starts with "N" THEN GOTO AutoNormal(77)
      56         IF OUT starts with "P" THEN GOTO AutoProhibe(81)
      57         IF OUT starts with "R" THEN GOTO AutoRelay(93)
      58         IF OUT starts with "A" THEN GOTO AutoAuto(65)
      59         IF OUT starts with "V" THEN GOTO AutoValida(85)
      60         IF OUT starts with "W" THEN GOTO AutoValida(85)
      61        SOUND 300, 1
      62      DISPLAY 48 23 from "ERROR EN ARCHIVO ALARMA"
      63        PAUSE 1
      64         GOTO Restart(22)
      65 AutoAuto:           
      66        SOUND 1000, .25
      67         MOVE "A" to MODORELOJ
      68         GOTO Restart(22)
      69 AutoEntrada:           
      70        SOUND 1000, .25
      71         MOVE "E" to MODORELOJ
      72         GOTO Restart(22)
      73 AutoSalida:           
      74        SOUND 1000, .25
      75         MOVE "S" to MODORELOJ
      76         GOTO Restart(22)
      77 AutoNormal:           
      78        SOUND 1000, .25
      79         MOVE "N" to MODORELOJ
      80         GOTO Restart(22)
      81 AutoProhibe:           
      82        SOUND 1000, .25
      83         MOVE "P" to MODORELOJ
      84         GOTO Restart(22)
      85 AutoValida:           
      86        SOUND 1000, .25
      87         IF OUT starts with "V" THEN GOTO PrendeValida(90)
      88         MOVE CERO to VALIDAR
      89         GOTO Restart(22)
      90 PrendeValida:           
      91         MOVE UNO to VALIDAR
      92         GOTO Restart(22)
      93 AutoRelay:           
      94       MIDDLE 32 characters of OUT into NUM_RINGS
      95       MIDDLE 52 characters of OUT into DURACION
      96       MIDDLE 72 characters of OUT into ESPACIO
      97 CicloRelay:           
      98         IF NUM_RINGS is less than 1 THEN GOTO Restart(22)
      99 CONTROL LINE 1 ON
     100 CONTROL LINE 4 OFF
     101         MOVE DURACION to LEN_PAUSA
     102        GOSUB PausaDecimas(238)
     103 CONTROL LINE 1 OFF
     104 CONTROL LINE 4 ON
     105         MOVE ESPACIO to LEN_PAUSA
     106        GOSUB PausaDecimas(238)
     107     SUBTRACT UNO from NUM_RINGS
     108         GOTO CicloRelay(97)
     109 NoHuboAlarma:           
     110         READ BADGE COM AUX to IN  on Timeout 300 goto UpdateTime(44)
     111         ON Badge INPUT GOTO AskForBadge(115)
     112         ON Comm port INPUT GOTO AskForBadge(115)
     113        SOUND 2000, .15
     114         GOTO UpdateTime(44)
     115 AskForBadge:           
     116         MOVE IN to CREDENCIAL
     117       LENGTH of CREDENCIAL into TAMANO
     118         IF TAMANO equals 11 THEN GOTO NormalSize(131)
     119         LEFT UNO characters of CREDENCIAL into MANUAL
     120         IF TAMANO equals 7 THEN GOTO MideSiete(124)
     121       APPEND "00" to MANUAL
     122        RIGHT 8 characters of CREDENCIAL into CREDENCIAL
     123         GOTO Ajustada(127)
     124 MideSiete:           
     125       APPEND "0000" to MANUAL
     126        RIGHT 6 characters of CREDENCIAL into CREDENCIAL
     127 Ajustada:           
     128       APPEND CREDENCIAL to MANUAL
     129         MOVE MANUAL to CREDENCIAL
     130         GOTO NormalSize(131)
     131 NormalSize:           
     132         IF CREDENCIAL is not equal to ULTIMO THEN GOTO NoRepetido(147)
     133         MOVE "" to MANUAL
     134     TRANSFER to MANUAL 1 4 from TIME
     135     SUBTRACT ULTIMAHORA from MANUAL
     136         IF MANUAL is greater than UNO THEN GOTO NoRepetido(147)
     137         IF MANUAL is less than CERO THEN GOTO NoRepetido(147)
     138         IF CREDENCIAL ends with "Z" THEN GOTO NoRepetido(147)
     139         IF CREDENCIAL ends with "Y" THEN GOTO NoRepetido(147)
     140         LED 3 ON
     141 CONTROL LINE 3 OFF
     142         MOVE "SU CREDENCIAL YA FUE LEIDA !!!" to LETRERO
     143        GOSUB DlgAlerta(245)
     144         LED 3 OFF
     145 CONTROL LINE 3 ON
     146         GOTO Restart(22)
     147 NoRepetido:           
     148         MOVE CREDENCIAL to ULTIMO
     149         IF VALIDAR equals CERO THEN GOTO RevisaZ(158)
     150   BIN LOOKUP in "L-EMPLEADO", 1, 11, 13, using CREDENCIAL into OUT
     151         IF OUT starts with "0000" THEN GOTO NoAutorizado(153)
     152         GOTO RevisaZ(158)
     153 NoAutorizado:           
     154         IF MODORELOJ equals "P" THEN GOTO Rechazada(185)
     155      DISPLAY w/CLR2  41 25 from "Credencial No Autorizada:"
     156      DISPLAY 67 7 from CREDENCIAL
     157         GOTO Rechazada(185)
     158 RevisaZ:           
     159         IF CREDENCIAL ends with "Z" THEN GOTO Supervisor(167)
     160         IF CREDENCIAL ends with "Y" THEN GOTO Supervisor(167)
     161         IF CREDENCIAL starts with 9000099999 THEN GOTO AutoCredencial(164)
     162         IF MODORELOJ equals "P" THEN GOTO Rechazada(185)
     163         GOTO Aceptada(183)
     164 AutoCredencial:           
     165        RIGHT UNO characters of CREDENCIAL into MODORELOJ
     166         GOTO Restart(22)
     167 Supervisor:           
     168         MOVE UNO to SUPERVISA
     169      DISPLAY w/CLR1  3 36 from "IN, OUT, F1=AUTO ENTRA, F2=AUTO SALE"
     170      DISPLAY w/CLR2  41 40 from "F3=NORMAL, F4=PROHIBE, F5=VAL, F6=MANUAL"
     171     READ KBD to IN  0 0  on Timeout 1500 goto Cancelada(277)
     172         ON F1 KEY GOTO AutoEntrada(69)
     173         ON F2 KEY GOTO AutoSalida(73)
     174         ON F3 KEY GOTO AutoAuto(65)
     175         ON F4 KEY GOTO AutoProhibe(81)
     176         ON F5 KEY GOTO Validacion(250)
     177         ON F6 KEY GOTO RegManual(263)
     178         ON F7 KEY GOTO AutoNormal(77)
     179         ON In KEY GOTO SendEntrada(212)
     180         ON Out KEY GOTO SendSalida(215)
     181        SOUND 300, 1
     182         GOTO Restart(22)
     183 Aceptada:           
     184         GOTO SendBadge(198)
     185 Rechazada:           
     186         LED 3 ON
     187 CONTROL LINE 3 OFF
     188        SOUND 3000, .15
     189        PAUSE .2
     190        SOUND 3000, .15
     191        PAUSE .2
     192        SOUND 3000, .15
     193        PAUSE 1
     194        SOUND 3000, .3
     195         LED 3 OFF
     196 CONTROL LINE 3 ON
     197         GOTO UpdateTime(44)
     198 SendBadge:           
     199         IF SUPERVISA equals UNO THEN GOTO TeclearInOut(203)
     200         IF MODORELOJ equals "A" THEN GOTO SendEntrada(212)
     201         IF MODORELOJ equals "E" THEN GOTO SendData(218)
     202         IF MODORELOJ equals "S" THEN GOTO SendData(218)
     203 TeclearInOut:           
     204      DISPLAY w/CLR1  2 38 from "Oprima:    IN = ENTRADA   OUT = SALIDA"
     205     READ KBD to IN  0 0  on Timeout 1500 goto Cancelada(277)
     206         ON Exit KEY GOTO Restart(22)
     207         ON In KEY GOTO SendEntrada(212)
     208         ON Out KEY GOTO SendSalida(215)
     209         MOVE "TECLA NO ES VALIDA" to LETRERO
     210        GOSUB DlgAlerta(245)
     211         GOTO TeclearInOut(203)
     212 SendEntrada:           
     213         MOVE UNO to OP
     214         GOTO SendData(218)
     215 SendSalida:           
     216         MOVE CERO to OP
     217         GOTO SendData(218)
     218 SendData:           
     219         LED 2 ON
     220 CONTROL LINE 2 OFF
     221      DISPLAY 50 10 from CREDENCIAL
     222      DISPLAY 62 8 from "Gracias!"
     223         MOVE "@" to NET
     224       APPEND CREDENCIAL to NET
     225         MOVE "" to MANUAL
     226     TRANSFER to MANUAL 1 4 from DATE
     227       APPEND MANUAL to NET
     228     TRANSFER to ULTIMAHORA 1 4 from TIME
     229       APPEND ULTIMAHORA to NET
     230       APPEND OP to NET
     231         SEND NET to host data QUEUE
     232        PAUSE 1
     233         LED 2 OFF
     234 CONTROL LINE 2 ON
     235         IF MODORELOJ equals "N" THEN GOTO Restart(22)
     236         IF SUPERVISA equals UNO THEN GOTO Restart(22)
     237         GOTO UpdateTime(44)
     238 PausaDecimas:           
     239         IF LEN_PAUSA is less than UNO THEN GOTO FinPausa(243)
     240        PAUSE .1
     241     SUBTRACT UNO from LEN_PAUSA
     242         GOTO PausaDecimas(238)
     243 FinPausa:           
     244       RETURN from Gosub
     245 DlgAlerta:           
     246      DISPLAY w/CLR1  1 40 from LETRERO
     247        SOUND 300, 1
     248        PAUSE 1.5
     249       RETURN from Gosub
     250 Validacion:           
     251         IF VALIDAR equals UNO THEN GOTO NoValidar(256)
     252         MOVE UNO to VALIDAR
     253         MOVE "VALIDACION: *** ACTIVADA ***" to LETRERO
     254        GOSUB DlgAlerta(245)
     255         GOTO Restart(22)
     256 NoValidar:           
     257         MOVE CERO to VALIDAR
     258         MOVE "VALIDACION: *** CANCELADA ***" to LETRERO
     259        GOSUB DlgAlerta(245)
     260         GOTO Restart(22)
     261 Consulta:           
     262         GOTO Restart(22)
     263 RegManual:           
     264 CLEAR SCREEN
     265      DISPLAY 9 23 from "*** Registro Manual ***"
     266      DISPLAY 41 11 from "Empleado #:"
     267         MOVE CERO to MANUAL
     268     READ KBD BADGE to MANUAL  53 10 Numeric AutoExit Zerofill  on Timeout 1500 goto Cancelada(277)
     269         ON Badge INPUT GOTO ConCredencial(274)
     270         MOVE "" to CREDENCIAL
     271     TRANSFER to CREDENCIAL 1 10 from MANUAL
     272       APPEND "+" to CREDENCIAL
     273         GOTO SendBadge(198)
     274 ConCredencial:           
     275         MOVE MANUAL to CREDENCIAL
     276         GOTO SendBadge(198)
     277 Cancelada:           
     278         MOVE "        *** OPERACION CANCELADA ***" to LETRERO
     279        GOSUB DlgAlerta(245)
     280         GOTO Restart(22)
 
- Generation completed with no errors.
- Basic file TRIPLE.BAS contains 1088 lines.
- LXB compilation.

NO ERRORS DETECTED
 
- TRIPLE.LXE can be downloaded to LINX terminals
