
9/26/2002 4:51:07 PM
Error: Access violation at address 004030A0 in module 'SuscripcionMGR.exe'. Read of address FFFFFFFF

9/26/2002 4:51:17 PM
Error: Access violation at address 004030A0 in module 'SuscripcionMGR.exe'. Read of address FFFFFFFF

9/26/2002 4:51:34 PM
Error: Access violation at address 004030A0 in module 'SuscripcionMGR.exe'. Read of address FFFFFFFF

9/26/2002 4:52:08 PM
Error: Access violation at address 004030A0 in module 'SuscripcionMGR.exe'. Read of address FFFFFFFF
