----- Personality CAFE generated by A.I. V3.0 at 06:25 pm on 24-Mar-00
 
       1 CLEAR SCREEN
       2 CONTROL LINE 1 OFF
       3 CONTROL LINE 2 ON
       4 CONTROL LINE 3 ON
       5 CONTROL LINE 4 ON
       6 CONTROL LINE 5 ON
       7 CONTROL LINE 6 ON
       8         LED 2 OFF
       9         LED 3 OFF
      10         MOVE "N" to MODORELOJ
      11         MOVE "XXXX" to LASTAUTO
      12         MOVE 0 to CERO
      13         MOVE 1 to UNO
      14         MOVE UNO to VALIDAR
      15         MOVE "" to ULTIMO
      16         MOVE CERO to ACEPTADAS
      17         MOVE CERO to RECHAZADAS
      18         MOVE UNO to TIPOFOOD
      19    CHARACTER of 10 into MANUAL
      20    CHARACTER of 13 into CRLF
      21       APPEND MANUAL to CRLF
      22         MOVE "NOMBRE" to EMPRESA
      23   SEQ LOOKUP in "L-ALARMA", 1 using EMPRESA into OUT
      24         MOVE "CAFETERIA" to EMPRESA
      25         IF OUT starts with "0000" THEN GOTO Restart(29)
      26       MIDDLE 1140 characters of OUT into OUT
      27         MOVE OUT to EMPRESA
      28         GOTO Restart(29)
      29 Restart:           
      30         MOVE CERO to SUPERVISA
      31         IF MODORELOJ equals "N" THEN GOTO ModoNormal(33)
      32         IF MODORELOJ equals "P" THEN GOTO ModoProhibe(35)
      33 ModoNormal:           
      34         GOTO UpdateTime(38)
      35 ModoProhibe:           
      36      DISPLAY 1 9 from "PROHIBIDO"
      37         GOTO UpdateTime(38)
      38 UpdateTime:           
      39      DISPLAY 12 5 from TIME
      40      DISPLAY 18 23 from EMPRESA
      41     TRANSFER to HORA 1 4 from TIME
      42         IF LASTAUTO equals HORA THEN GOTO NoHuboAlarma(69)
      43   SEQ LOOKUP in "L-ALARMA", 1 using HORA into OUT
      44         IF OUT starts with "0000" THEN GOTO NoHuboAlarma(69)
      45         MOVE HORA to LASTAUTO
      46       MIDDLE 920 characters of OUT into OUT
      47         IF OUT starts with "N" THEN GOTO AutoNormal(54)
      48         IF OUT starts with "P" THEN GOTO AutoProhibe(59)
      49         IF OUT is between 0 and 9 THEN GOTO TipoComida(63)
      50        SOUND 300, 1
      51      DISPLAY 41 13 from "ERROR: ALARMA"
      52        PAUSE 1
      53         GOTO Restart(29)
      54 AutoNormal:           
      55        SOUND 1000, .25
      56 CLEAR SCREEN
      57         MOVE "N" to MODORELOJ
      58         GOTO Restart(29)
      59 AutoProhibe:           
      60        SOUND 1000, .25
      61         MOVE "P" to MODORELOJ
      62         GOTO Restart(29)
      63 TipoComida:           
      64        SOUND 1000, .25
      65         MOVE OUT to TIPOFOOD
      66      DISPLAY w/CLR2  41 6 from "TIPO ="
      67      DISPLAY 48 1 from TIPOFOOD
      68         GOTO Restart(29)
      69 NoHuboAlarma:           
      70         READ BADGE COM to IN  on Timeout 3000 goto UpdateTime(38)
      71         ON Badge INPUT GOTO AskForBadge(75)
      72         ON Comm port INPUT GOTO AskForBadge(75)
      73        SOUND 2000, .15
      74         GOTO UpdateTime(38)
      75 AskForBadge:           
      76         MOVE IN to CREDENCIAL
      77         MOVE "01" to NUMCOMIDAS
      78         IF CREDENCIAL starts with "CAFE" THEN GOTO Operador(124)
      79         IF CREDENCIAL equals "012345B" THEN GOTO Operador(124)
      80       LENGTH of CREDENCIAL into TAMANO
      81         IF TAMANO equals 7 THEN GOTO NormalSize(85)
      82         MOVE CERO to MANUAL
      83       APPEND CREDENCIAL to MANUAL
      84         MOVE MANUAL to CREDENCIAL
      85 NormalSize:           
      86       MIDDLE 22 characters of CREDENCIAL into INVITA
      87         IF INVITA equals "IV" THEN GOTO Invitador(102)
      88         IF CREDENCIAL is not equal to ULTIMO THEN GOTO NoRepetido(107)
      89         MOVE "" to MANUAL
      90     TRANSFER to MANUAL 1 4 from TIME
      91     SUBTRACT ULTIMAHORA from MANUAL
      92         IF MANUAL is greater than 1 THEN GOTO NoRepetido(107)
      93         IF MANUAL is less than 0 THEN GOTO NoRepetido(107)
      94         LED 3 ON
      95        SOUND 300, 1
      96      DISPLAY w/CLR2  41 1 from ""
      97      DISPLAY 41 16 from "MISMO?  ENTER=SI"
      98         LED 3 OFF
      99     READ KBD to IN  0 0  on Timeout 500 goto OpCancelada(289)
     100         ON Enter KEY GOTO NoRepetido(107)
     101         GOTO OpCancelada(289)
     102 Invitador:           
     103         MOVE UNO to IN
     104      DISPLAY w/CLR2  41 8 from "Comidas:"
     105     READ KBD to IN  50 2 Numeric AutoExit Default Zerofill  on Timeout 1000 goto OpCancelada(289)
     106         MOVE IN to NUMCOMIDAS
     107 NoRepetido:           
     108         MOVE CREDENCIAL to ULTIMO
     109         GOTO RevisaZ(110)
     110 RevisaZ:           
     111         IF CREDENCIAL ends with "Z" THEN GOTO Supervisor(121)
     112         IF CREDENCIAL ends with "Y" THEN GOTO Supervisor(121)
     113         IF CREDENCIAL starts with 999999 THEN GOTO AutoCredencial(116)
     114         IF MODORELOJ equals "P" THEN GOTO Rechazada(162)
     115         GOTO SendBadge(175)
     116 AutoCredencial:           
     117        RIGHT 1 characters of CREDENCIAL into OUT
     118         IF OUT is between 0 and 9 THEN GOTO TipoComida(63)
     119        RIGHT 1 characters of CREDENCIAL into MODORELOJ
     120         GOTO Restart(29)
     121 Supervisor:           
     122         MOVE UNO to SUPERVISA
     123         GOTO SendBadge(175)
     124 Operador:           
     125      DISPLAY w/CLR1  1 16 from "F1=CANCEL,F2=MAN"
     126      DISPLAY w/CLR2  41 16 from "F3=CORTE, F4=VAL"
     127     READ KBD to IN  0 0 Default  on Timeout 1500 goto OpCancelada(289)
     128         ON F1 KEY GOTO Cancelar(137)
     129         ON F2 KEY GOTO PrepManual(134)
     130         ON F3 KEY GOTO Corte(141)
     131         ON F4 KEY GOTO Validacion(257)
     132        SOUND 300, 1
     133         GOTO Restart(29)
     134 PrepManual:           
     135         MOVE "* MANUAL *" to LETRERO
     136         GOTO RegManual(269)
     137 Cancelar:           
     138         MOVE -1 to NUMCOMIDAS
     139         MOVE "* CANCELAR *" to LETRERO
     140         GOTO RegManual(269)
     141 Corte:           
     142 CLEAR SCREEN
     143         MOVE "* CORTE *" to MANUAL
     144      DISPLAY 1 16 from MANUAL
     145       APPEND CRLF to MANUAL
     146         SEND MANUAL to AUX port
     147         MOVE RECHAZADAS to LETRERO
     148       APPEND " : RECHAZADAS" to LETRERO
     149        GOSUB DlgAlerta(252)
     150       APPEND CRLF to LETRERO
     151         SEND LETRERO to AUX port
     152        PAUSE 4
     153         MOVE ACEPTADAS to LETRERO
     154       APPEND " : ACEPTADAS" to LETRERO
     155        GOSUB DlgAlerta(252)
     156       APPEND CRLF to LETRERO
     157         SEND LETRERO to AUX port
     158        PAUSE 4
     159         MOVE CERO to ACEPTADAS
     160         MOVE CERO to RECHAZADAS
     161         GOTO Restart(29)
     162 Rechazada:           
     163         LED 3 ON
     164 CONTROL LINE 3 OFF
     165        SOUND 3000, .15
     166        PAUSE .2
     167        SOUND 3000, .15
     168        PAUSE .2
     169        SOUND 3000, .15
     170        PAUSE .2
     171        SOUND 3000, .3
     172         LED 3 OFF
     173 CONTROL LINE 3 ON
     174         GOTO UpdateTime(38)
     175 SendBadge:           
     176 CLEAR SCREEN
     177      DISPLAY 1 6 from CREDENCIAL
     178      DISPLAY 1 1 from "#"
     179         MOVE TIPOFOOD to IN
     180         IF TIPOFOOD is greater than 0 THEN GOTO HayTipo(185)
     181         MOVE UNO to IN
     182      DISPLAY w/CLR2  41 5 from "Tipo:"
     183     READ KBD to IN  47 1 Numeric AutoExit Default  on Timeout 1000 goto OpCancelada(289)
     184         IF IN is not between 1 and 9 THEN GOTO SendBadge(175)
     185 HayTipo:           
     186         IF TIPOFOOD is not equal to 9 THEN GOTO HayComidas(190)
     187      DISPLAY 41 7 from "Precio:"
     188     READ KBD to NUMCOMIDAS  49 2 Numeric AutoExit Default Zerofill  on Timeout 1000 goto OpCancelada(289)
     189         IF NUMCOMIDAS is less than CERO THEN GOTO HayTipo(185)
     190 HayComidas:           
     191         MOVE CERO to STATUSVALIDA
     192         MOVE "#" to NET
     193       APPEND CREDENCIAL to NET
     194         MOVE "" to MANUAL
     195     TRANSFER to MANUAL 1 4 from DATE
     196       APPEND MANUAL to NET
     197     TRANSFER to ULTIMAHORA 1 4 from TIME
     198       APPEND ULTIMAHORA to NET
     199       APPEND NUMCOMIDAS to NET
     200       APPEND IN to NET
     201         MOVE IN to OUT
     202       MIDDLE 215 characters of NET into LASTRECORD
     203         SEND NET to host data QUEUE
     204         IF VALIDAR equals 1 THEN GOTO EsperaRespuesta(207)
     205         MOVE "ACEPTADA" to RESPUESTA
     206         GOTO AceptaComida(231)
     207 EsperaRespuesta:           
     208    READ HOST to IN  on Timeout 500 goto NoHuboRespuesta(216)
     209         IF IN starts with LASTRECORD THEN GOTO RespuestaOK(211)
     210         GOTO EsperaRespuesta(207)
     211 RespuestaOK:           
     212       MIDDLE 161 characters of IN into STATUSVALIDA
     213       MIDDLE 1740 characters of IN into RESPUESTA
     214         IF STATUSVALIDA equals 2 THEN GOTO AceptaComida(231)
     215         GOTO RechazaComida(220)
     216 NoHuboRespuesta:           
     217         MOVE UNO to STATUSVALIDA
     218         MOVE "NO RESPONDE" to RESPUESTA
     219         GOTO AceptaComida(231)
     220 RechazaComida:           
     221         MOVE 3 to STATUSVALIDA
     222         LED 3 ON
     223 CONTROL LINE 3 OFF
     224         MOVE RESPUESTA to LETRERO
     225        GOSUB DlgAlerta(252)
     226         ADD NUMCOMIDAS to RECHAZADAS
     227 CONTROL LINE 3 ON
     228        GOSUB IMPRIME(279)
     229         LED 3 OFF
     230         GOTO Restart(29)
     231 AceptaComida:           
     232         LED 2 ON
     233 CONTROL LINE 2 OFF
     234 CONTROL LINE 5 OFF
     235 CONTROL LINE 6 OFF
     236      DISPLAY w/CLR2  41 40 from RESPUESTA
     237         ADD NUMCOMIDAS to ACEPTADAS
     238        GOSUB IMPRIME(279)
     239        PAUSE .25
     240         LED 2 OFF
     241 CONTROL LINE 2 ON
     242 CONTROL LINE 5 ON
     243 CONTROL LINE 6 ON
     244         GOTO Restart(29)
     245 PausaDecimas:           
     246         IF LEN_PAUSA is less than 1 THEN GOTO FinPausa(250)
     247        PAUSE .1
     248     SUBTRACT 1 from LEN_PAUSA
     249         GOTO PausaDecimas(245)
     250 FinPausa:           
     251       RETURN from Gosub
     252 DlgAlerta:           
     253      DISPLAY w/CLR2  41 40 from LETRERO
     254        SOUND 300, 1
     255        PAUSE 1.5
     256       RETURN from Gosub
     257 Validacion:           
     258      DISPLAY w/CLR1  1 7 from "VALIDAR"
     259         IF VALIDAR equals 1 THEN GOTO NoValidar(264)
     260         MOVE UNO to VALIDAR
     261         MOVE "* ACTIVADA *" to LETRERO
     262        GOSUB DlgAlerta(252)
     263         GOTO Restart(29)
     264 NoValidar:           
     265         MOVE CERO to VALIDAR
     266         MOVE "* CANCELADA *" to LETRERO
     267        GOSUB DlgAlerta(252)
     268         GOTO Restart(29)
     269 RegManual:           
     270 CLEAR SCREEN
     271      DISPLAY 1 2 from "#:"
     272      DISPLAY 41 40 from LETRERO
     273         MOVE CERO to MANUAL
     274     READ KBD BADGE to MANUAL  3 6 Numeric AutoExit Zerofill  on Timeout 1500 goto OpCancelada(289)
     275         MOVE "" to CREDENCIAL
     276     TRANSFER to CREDENCIAL 1 6 from MANUAL
     277       APPEND "+" to CREDENCIAL
     278         GOTO SendBadge(175)
     279 Imprime:           
     280       APPEND HORA to MANUAL comma separated
     281       APPEND CREDENCIAL to MANUAL comma separated
     282       APPEND NUMCOMIDAS to MANUAL comma separated
     283       APPEND OUT to MANUAL comma separated
     284       APPEND " : " to MANUAL
     285       APPEND RESPUESTA to MANUAL
     286       APPEND CRLF to MANUAL
     287         SEND MANUAL to AUX port
     288       RETURN from Gosub
     289 OpCancelada:           
     290         MOVE "OP. CANCELADA" to LETRERO
     291        GOSUB DlgAlerta(252)
     292         GOTO Restart(29)
 
- Generation completed with no errors.
- Basic file CAFE.BAS contains 1102 lines.
- LXB compilation.

NO ERRORS DETECTED
 
- CAFE.LXE can be downloaded to LINX terminals
